module github.com/NickP007/kbot

go 1.20

require (
	github.com/spf13/cobra v1.7.0
	gopkg.in/telebot.v3 v3.1.3
)

require (
	github.com/inconshreveable/mousetrap v1.1.0 // indirect
	github.com/spf13/pflag v1.0.5 // indirect
)
